{
  "name": "Bamboo Shaft Arrows (10)",
  "permission": {
    "default": 0
  },
  "type": "loot",
  "data": {
    "description": {
      "value": "<p><strong>Source</strong> <em>Ultimate Combat pg. 130</em></p><h3 class=\"framing\"><img src=\"https://www.aonprd.com/images/PathfinderSocietySymbol.gif\" title=\"PFS Legal\" style=\"margin:3px 3px 0px 3px;\">Statistics</h3><p><strong>Cost</strong> 1 gp <strong>Weight</strong> 1/2 lb.</p><p><strong>Category</strong> Ammunition; <strong>Proficiency</strong> Ammunition</p><h3 class=\"framing\">Description</h3><p>These foot-long arrows are used as ammunition for arrow tubes. As an improvised melee weapon, they deal damage equivalent to a spiked gauntlet. They come in a bamboo tube that holds 10 shafts.</p>",
      "chat": "",
      "unidentified": ""
    },
    "tags": [],
    "quantity": 10,
    "weight": 0.5,
    "price": 1,
    "identified": true,
    "hp": {
      "max": 1,
      "value": 1
    },
    "hardness": 5,
    "carried": true,
    "unidentified": {
      "price": 0,
      "name": ""
    },
    "identifiedName": "Bamboo Shaft Arrows (10)",
    "cl": 0,
    "aura": {
      "custom": false,
      "school": ""
    },
    "changes": [],
    "changeFlags": {
      "loseDexToAC": false,
      "noEncumbrance": false,
      "mediumArmorFullSpeed": false,
      "heavyArmorFullSpeed": false
    },
    "contextNotes": [],
    "links": {
      "children": []
    },
    "tag": "bambooShaftArrows10",
    "useCustomTag": false,
    "flags": {
      "boolean": [],
      "dictionary": []
    },
    "subType": "ammo",
    "equipped": false,
    "damage": {
      "parts": [],
      "critParts": []
    }
  },
  "flags": {},
  "img": "icons/weapons/ammunition/arrows-broadhead-white.webp",
  "effects": [],
  "_id": "7hQ31ulaYWltZ7pc"
}