{
  "_id": "MK5NI8fCMwndhONO",
  "name": "Chakram",
  "permission": {
    "default": 0
  },
  "type": "weapon",
  "data": {
    "description": {
      "value": "<p><strong>Source</strong> <em>Ranged Tactics Toolbox pg. 0</em>, <em>Adventurer's Armory pg. 3</em>, <em>Advanced Player's Guide pg. 178</em>, <em>Ultimate Equipment pg. 19</em></p><h3 class=\"framing\"><img src=\"https://www.aonprd.com/images/PathfinderSocietySymbol.gif\" title=\"PFS Legal\" style=\"margin:3px 3px 0px 3px;\">Statistics</h3><p><strong>Cost</strong> 1 gp <strong>Weight</strong> 1 lb.</p><p><strong>Damage</strong> 1d6 (small), 1d8 (medium); <strong>Critical</strong> x2; <strong>Range</strong> 30 ft.; <strong>Type</strong> S; <strong>Special</strong> -</p><p><strong>Category</strong> Ranged; <strong>Proficiency</strong> Martial</p><p><strong>Weapon Groups</strong> Blades, Heavy; Blades, Light; Thrown</p><h3 class=\"framing\">Description</h3><p>The chakram is a simple, elegant, and highly portable thrown weapon. It is a flat, open-centered metal discus with a sharpened edge. You can wield the chakram as a melee weapon, but it is not designed for such use; you take a -1 penalty on your attack roll with the weapon and must succeed at a DC 15 Reflex save or cut yourself on the blade (half damage, no Strength modifier). You do not need to make this save if wearing heavy armor.</p>",
      "chat": "",
      "unidentified": ""
    },
    "tags": [],
    "quantity": 1,
    "weight": 1,
    "price": 1,
    "identified": true,
    "hp": {
      "max": 5,
      "value": 5
    },
    "hardness": 5,
    "carried": true,
    "unidentified": {
      "price": 0,
      "name": ""
    },
    "identifiedName": "Chakram",
    "cl": 0,
    "aura": {
      "custom": false,
      "school": ""
    },
    "changes": [],
    "changeFlags": {
      "loseDexToAC": false,
      "noEncumbrance": false,
      "mediumArmorFullSpeed": false,
      "heavyArmorFullSpeed": false,
      "noStr": false,
      "noDex": false,
      "oneInt": false,
      "oneWis": false,
      "oneCha": false
    },
    "contextNotes": [],
    "links": {
      "children": []
    },
    "tag": "chakram",
    "useCustomTag": false,
    "flags": {
      "boolean": [],
      "dictionary": []
    },
    "equipped": true,
    "masterwork": false,
    "nonlethal": false,
    "weaponType": "martial",
    "weaponSubtype": "ranged",
    "properties": {
      "blc": false,
      "brc": false,
      "dbl": false,
      "dis": false,
      "fin": false,
      "frg": false,
      "imp": false,
      "mnk": false,
      "nnl": false,
      "prf": false,
      "rch": false,
      "thr": false,
      "trp": false,
      "dea": false,
      "dst": false,
      "grp": false,
      "snd": false
    },
    "enh": null,
    "weaponData": {
      "damageRoll": "1d8",
      "damageType": "S",
      "critRange": 20,
      "critMult": 2,
      "range": 30,
      "attackFormula": "",
      "damageFormula": "",
      "size": "med",
      "maxRangeIncrements": 1
    },
    "broken": false,
    "bonus": {
      "value": 0,
      "_deprecated": true
    },
    "damageType": {
      "value": "",
      "_deprecated": true
    },
    "damage2": {
      "value": "",
      "_deprecated": true
    },
    "damage2Type": {
      "value": "",
      "_deprecated": true
    },
    "damage": {
      "parts": []
    },
    "uses": {
      "value": 0,
      "max": 0
    }
  },
  "flags": {},
  "img": "systems/pf1/icons/items/weapons/chakram.png",
  "effects": []
}