{
  "_id": "v04yeRzoqrhYx0G7",
  "name": "Crossbow Bolt",
  "permission": {
    "default": 0
  },
  "type": "loot",
  "data": {
    "description": {
      "value": "<p><strong>Source</strong>&nbsp;<em>Ultimate Equipment pg. 22</em>,&nbsp;<em>PRPG Core Rulebook pg. 142</em>,&nbsp;<em>PRPG Core Rulebook pg. 143</em></p>\n<h3 class=\"framing\"><img style=\"margin: 3px 3px 0px 3px;\" title=\"PFS Legal\" src=\"https://www.aonprd.com/images/PathfinderSocietySymbol.gif\" />Statistics</h3>\n<p><strong>Cost</strong>&nbsp;1 gp&nbsp;<strong>Weight</strong>&nbsp;1 lb.</p>\n<p><strong>Category</strong>&nbsp;Ammunition;&nbsp;<strong>Proficiency</strong>&nbsp;Ammunition</p>\n<h3 class=\"framing\">Description</h3>\n<p>A crossbow bolt used as a melee weapon is treated as a light improvised weapon (-4 penalty on attack rolls) and deals damage as a dagger of its size (critical multiplier x2). Bolts come in a case or quiver that holds 10 bolts. All crossbows except repeating crossbows use these kinds of crossbow bolts, which are sometimes called \"quarrels.\"</p>",
      "chat": "",
      "unidentified": ""
    },
    "tags": [],
    "quantity": 1,
    "weight": 0.1,
    "price": 0.1,
    "identified": true,
    "hp": {
      "max": 1,
      "value": 1
    },
    "hardness": 5,
    "carried": true,
    "unidentified": {
      "price": 0.1,
      "name": ""
    },
    "identifiedName": "Crossbow Bolt",
    "cl": 0,
    "aura": {
      "custom": false,
      "school": ""
    },
    "changes": [],
    "changeFlags": {
      "loseDexToAC": false,
      "noEncumbrance": false,
      "mediumArmorFullSpeed": false,
      "heavyArmorFullSpeed": false,
      "noStr": false,
      "noDex": false,
      "oneInt": false,
      "oneWis": false,
      "oneCha": false
    },
    "contextNotes": [],
    "links": {
      "children": []
    },
    "tag": "",
    "useCustomTag": false,
    "flags": {
      "boolean": [],
      "dictionary": []
    },
    "subType": "ammo",
    "equipped": false,
    "damage": {
      "parts": [],
      "critParts": []
    },
    "conditionals": [],
    "uses": {
      "value": 0,
      "max": 0
    }
  },
  "flags": {},
  "img": "systems/pf1/icons/items/weapons/bolt.PNG",
  "effects": []
}