{
  "_id": "3pMUGj64GvIVpAwS",
  "name": "Dwarven Heavy Pelletbow",
  "permission": {
    "default": 0
  },
  "type": "weapon",
  "data": {
    "description": {
      "value": "<p><strong>Source</strong> <em>Heroes from the Fringe pg. 8</em></p><h3 class=\"framing\">Statistics</h3><p><strong>Cost</strong> 75 gp <strong>Weight</strong> 8 lbs.</p><p><strong>Damage</strong> 1d4 (small), 1d6 (medium); <strong>Critical</strong> 19-20/x3; <strong>Range</strong> 60 ft.; <strong>Type</strong> B; <strong>Special</strong> -</p><p><strong>Category</strong> Ranged; <strong>Proficiency</strong> Exotic</p><p><strong>Weapon Groups</strong> Crossbows</p><h3 class=\"framing\">Description</h3><p>The dwarven pelletbow is a crossbowlike weapon that is loaded with and fires sling bullets rather than bolts. A dwarven heavy pelletbow takes the same amount of time and effort to load as a light crossbow (normally a move action), and a dwarven light pelletbow can be reloaded as a free action (allowing characters to attack with it multiple times in a round). Normally a pelletbow takes two hands to operate, but you can shoot (but not load) a pelletbow with one hand by taking a -2 penalty on attack rolls. You can shoot one pelletbow with each hand, but you take a penalty on attack rolls for attacking with two weapons (treating the heavy pelletbow as a one-handed weapon and the light pelletbow as a light weapon). </p><p></p><p>Feats and special abilities that don't involve proficiency (that don't depend on dealing piercing damage or firing bolts) that apply to a heavy crossbow also apply to a dwarven heavy pelletbow, and those that apply to a light crossbow also apply to a dwarven light pelletbow.</p>",
      "chat": "",
      "unidentified": ""
    },
    "tags": [],
    "quantity": 1,
    "weight": 8,
    "price": 75,
    "identified": true,
    "hp": {
      "max": 5,
      "value": 5
    },
    "hardness": 5,
    "carried": true,
    "unidentified": {
      "price": 0,
      "name": ""
    },
    "identifiedName": "Dwarven Heavy Pelletbow",
    "cl": 0,
    "aura": {
      "custom": false,
      "school": ""
    },
    "changes": [],
    "changeFlags": {
      "loseDexToAC": false,
      "noEncumbrance": false,
      "mediumArmorFullSpeed": false,
      "heavyArmorFullSpeed": false,
      "noStr": false,
      "noDex": false,
      "oneInt": false,
      "oneWis": false,
      "oneCha": false
    },
    "contextNotes": [],
    "links": {
      "children": []
    },
    "tag": "dwarvenHeavyPelletbow",
    "useCustomTag": false,
    "flags": {
      "boolean": [],
      "dictionary": []
    },
    "equipped": true,
    "masterwork": false,
    "nonlethal": false,
    "weaponType": "exotic",
    "weaponSubtype": "ranged",
    "properties": {
      "blc": false,
      "brc": false,
      "dbl": false,
      "dis": false,
      "fin": false,
      "frg": false,
      "imp": false,
      "mnk": false,
      "nnl": false,
      "prf": false,
      "rch": false,
      "thr": false,
      "trp": false,
      "grp": false,
      "snd": false,
      "dea": false,
      "dst": false
    },
    "enh": null,
    "weaponData": {
      "damageRoll": "1d6",
      "damageType": "B",
      "critRange": 19,
      "critMult": 3,
      "range": 60,
      "attackFormula": "",
      "damageFormula": "",
      "size": "med",
      "maxRangeIncrements": 1
    },
    "broken": false,
    "bonus": {
      "value": 0,
      "_deprecated": true
    },
    "damageType": {
      "value": "",
      "_deprecated": true
    },
    "damage2": {
      "value": "",
      "_deprecated": true
    },
    "damage2Type": {
      "value": "",
      "_deprecated": true
    },
    "damage": {
      "parts": []
    },
    "uses": {
      "value": 0,
      "max": 0
    }
  },
  "flags": {},
  "img": "systems/pf1/icons/items/weapons/dwarven-pelletbow.PNG",
  "effects": []
}