{
  "_id": "AG4dCbCQFSRV33YX",
  "name": "Flechette Bolt",
  "permission": {
    "default": 0
  },
  "type": "loot",
  "data": {
    "description": {
      "value": "<p><strong>Source</strong> <em>Dragonslayer's Handbook pg. 27</em></p><h3 class=\"framing\">Statistics</h3><p><strong>Cost</strong> 30 gp <strong>Weight</strong> 20 lbs.</p><p><strong>Category</strong> Ammunition; <strong>Proficiency</strong> Ammunition</p><h3 class=\"framing\">Description</h3><p>This ballista bolt consists of dozens of small steel darts, called  flechettes, which break away after the bolt is released. If the  bolt impacts anything before it reaches a distance of 30 feet, it  deals 1d8 points of damage. Between 30 and 60 feet away, the  flechettes deploy, dealing piercing damage to every creature  and object within a 30-foot-cone burst. After 60 feet, the  flechettes lose momentum and fall harmlessly to the ground.</p><p></p><p>  Separate attack rolls must be made against each target hit by  the burst. Light ballista flechettes deal 2d8 points of damage,  while heavy ballista flechettes deal 3d8 points. Additionally, any  winged creature hit by flechettes has several holes punched in  its wings, and has its fly speed reduced by 10 feet. The creature  takes a -4 penalty on Fly checks until the damage is healed.</p>",
      "chat": "",
      "unidentified": ""
    },
    "tags": [],
    "quantity": 1,
    "weight": 200,
    "price": 30,
    "identified": true,
    "hp": {
      "max": 1,
      "value": 1
    },
    "hardness": 5,
    "carried": true,
    "unidentified": {
      "price": 0,
      "name": ""
    },
    "identifiedName": "Flechette Bolt",
    "cl": 0,
    "aura": {
      "custom": false,
      "school": ""
    },
    "changes": [],
    "changeFlags": {
      "loseDexToAC": false,
      "noEncumbrance": false,
      "mediumArmorFullSpeed": false,
      "heavyArmorFullSpeed": false
    },
    "contextNotes": [],
    "links": {
      "children": []
    },
    "tag": "flechetteBolt",
    "useCustomTag": false,
    "flags": {
      "boolean": [],
      "dictionary": []
    },
    "subType": "misc",
    "equipped": true,
    "properties": {},
    "weaponData": {},
    "bonus": {},
    "damageType": {},
    "damage2": {},
    "damage2Type": {},
    "uses": {
      "value": 0,
      "max": 0
    },
    "conditionals": []
  },
  "flags": {},
  "img": "icons/weapons/ammunition/arrow-simple-brown.webp",
  "effects": []
}