{
  "name": "Horse Bow",
  "permission": {
    "default": 0
  },
  "type": "weapon",
  "data": {
    "description": {
      "value": "<p><strong>Source</strong> <em>Merchant's Manifest pg. 24</em></p><h3 class=\"framing\">Statistics</h3><p><strong>Cost</strong> 150 gp <strong>Weight</strong> 3 lbs.</p><p><strong>Damage</strong> 1d6 (small), 1d8 (medium); <strong>Critical</strong> x3; <strong>Range</strong> 110 ft.; <strong>Type</strong> P; <strong>Special</strong> -</p><p><strong>Category</strong> Ranged; <strong>Proficiency</strong> Exotic</p><h3 class=\"framing\">Description</h3><p>The horse bow functions like a composite longbow, but it is designed to be used on horseback. A rider using a horse bow can make ranged attacks while mounted; furthermore, she does not take a penalty to attack rolls when her mount is taking a double move action, and she takes only a -4 penalty on attack rolls when her mount is running. The price of this item is for a default horse bow; each point of Strength bonus granted by the horse bow adds 150 gp to its cost.</p>",
      "chat": "",
      "unidentified": ""
    },
    "tags": [],
    "quantity": 1,
    "weight": 3,
    "price": 150,
    "identified": true,
    "hp": {
      "max": 5,
      "value": 5
    },
    "hardness": 5,
    "carried": true,
    "unidentified": {
      "price": 0,
      "name": ""
    },
    "identifiedName": "Horse Bow",
    "cl": 0,
    "aura": {
      "custom": false,
      "school": ""
    },
    "changes": [],
    "changeFlags": {
      "loseDexToAC": false,
      "noEncumbrance": false,
      "mediumArmorFullSpeed": false,
      "heavyArmorFullSpeed": false
    },
    "contextNotes": [],
    "links": {
      "children": []
    },
    "tag": "horseBow",
    "useCustomTag": false,
    "flags": {
      "boolean": [],
      "dictionary": []
    },
    "equipped": true,
    "masterwork": false,
    "nonlethal": false,
    "weaponType": "exotic",
    "weaponSubtype": "ranged",
    "properties": {
      "blc": false,
      "brc": false,
      "dbl": false,
      "dis": false,
      "fin": false,
      "frg": false,
      "grp": false,
      "imp": false,
      "mnk": false,
      "nnl": false,
      "prf": false,
      "rch": false,
      "snd": false,
      "thr": false,
      "trp": false,
      "dea": false,
      "dst": false
    },
    "enh": null,
    "weaponData": {
      "damageRoll": "1d8",
      "damageType": "P",
      "critRange": 20,
      "critMult": 3,
      "range": 110,
      "attackFormula": "",
      "damageFormula": "",
      "size": "med",
      "maxRangeIncrements": 1
    },
    "broken": false,
    "bonus": {
      "value": 0,
      "_deprecated": true
    },
    "damageType": {
      "value": "",
      "_deprecated": true
    },
    "damage2": {
      "value": "",
      "_deprecated": true
    },
    "damage2Type": {
      "value": "",
      "_deprecated": true
    },
    "uses": {
      "value": 0,
      "max": 0
    }
  },
  "flags": {},
  "img": "systems/pf1/icons/items/weapons/orc-hornbow.png",
  "effects": [],
  "_id": "lNkiFRCBELwKFaTg"
}