{
  "name": "Iron-Tipped Distance Arrows (20)",
  "permission": {
    "default": 0
  },
  "type": "loot",
  "data": {
    "description": {
      "value": "<p><strong>Source</strong> <em>Ultimate Combat pg. 130</em></p>\n<h3 class=\"framing\"><img style=\"margin: 3px 3px 0px 3px;\" title=\"PFS Legal\" src=\"https://www.aonprd.com/images/PathfinderSocietySymbol.gif\" />Statistics</h3>\n<p><strong>Cost</strong> 1 gp <strong>Weight</strong> 4 lbs.</p>\n<p><strong>Category</strong> Ammunition; <strong>Proficiency</strong> Ammunition</p>\n<h3 class=\"framing\">Description</h3>\n<p>Used tactically for long-range attacks on troops, these arrows are fitted with heavy iron heads. While these heads help them travel great distances, they make the arrows less effective at dealing damage.</p>\n<p>Iron-tipped distance arrows increase their bow's range increment by 10 feet but take a <strong>-1 penalty on damage</strong> dealt per range increment (minimum 1 point of damage).</p>\n<p>They are sold in leather quivers in quantities of 20.</p>",
      "chat": "",
      "unidentified": ""
    },
    "tags": [],
    "quantity": 20,
    "weight": 40,
    "price": 1,
    "identified": true,
    "hp": {
      "max": 1,
      "value": 1
    },
    "hardness": 5,
    "carried": true,
    "unidentified": {
      "price": 0,
      "name": ""
    },
    "identifiedName": "Iron-Tipped Distance Arrows (20)",
    "cl": 0,
    "aura": {
      "custom": false,
      "school": ""
    },
    "changes": [],
    "changeFlags": {
      "loseDexToAC": false,
      "noEncumbrance": false,
      "mediumArmorFullSpeed": false,
      "heavyArmorFullSpeed": false
    },
    "contextNotes": [],
    "links": {
      "children": []
    },
    "tag": "irontippedDistanceArrows20",
    "useCustomTag": false,
    "flags": {
      "boolean": [],
      "dictionary": []
    },
    "subType": "misc",
    "equipped": true,
    "properties": {},
    "weaponData": {},
    "bonus": {},
    "damageType": {},
    "damage2": {},
    "damage2Type": {},
    "uses": {
      "value": 0,
      "max": 0
    }
  },
  "flags": {},
  "img": "icons/weapons/ammunition/arrows-broadhead-white.webp",
  "effects": [],
  "_id": "r8EZUI0lJyaKo6rI"
}