{
  "name": "Meteor Hammer",
  "permission": {
    "default": 0
  },
  "type": "weapon",
  "data": {
    "description": {
      "value": "<p><strong>Source</strong> <em>Ultimate Equipment pg. 21</em>, <em>Legacy of Fire Player's Guide pg. 22</em>, <em>Adventurer's Armory pg. 4</em>, <em>Ultimate Combat pg. 132</em></p><h3 class=\"framing\"><img src=\"https://www.aonprd.com/images/PathfinderSocietySymbol.gif\" title=\"PFS Legal\" style=\"margin:3px 3px 0px 3px;\">Statistics</h3><p><strong>Cost</strong> 10 gp <strong>Weight</strong> 10 lbs.</p><p><strong>Damage</strong> 1d6 (small), 1d8 (medium); <strong>Critical</strong> x2; <strong>Range</strong> -; <strong>Type</strong> B; <strong>Special</strong> reach, trip</p><p><strong>Category</strong> Two-Handed; <strong>Proficiency</strong> Exotic</p><p><strong>Weapon Groups</strong> Flails</p><h3 class=\"framing\">Description</h3><p>This weapon consists of one or two spherical weights attached by a 10-foot chain. You whirl the weights and wrap them around an opponent's body. If you succeed at a trip attempt with a meteor hammer, you can drag your opponent 5 feet closer to you rather than knocking her prone. You may use this weapon in two different ways: In meteor mode you use it as a double weapon, while in fortress mode you cannot use it as a double weapon but gain reach and a +1 shield bonus to AC. Switching between these two modes is a free action decided at the start of your turn.</p>",
      "chat": "",
      "unidentified": ""
    },
    "tags": [],
    "quantity": 1,
    "weight": 10,
    "price": 10,
    "identified": true,
    "hp": {
      "max": 10,
      "value": 10
    },
    "hardness": 10,
    "carried": true,
    "unidentified": {
      "price": 0,
      "name": ""
    },
    "identifiedName": "Meteor Hammer",
    "cl": 0,
    "aura": {
      "custom": false,
      "school": ""
    },
    "changes": [],
    "changeFlags": {
      "loseDexToAC": false,
      "noEncumbrance": false,
      "mediumArmorFullSpeed": false,
      "heavyArmorFullSpeed": false
    },
    "contextNotes": [],
    "links": {
      "children": []
    },
    "tag": "meteorHammer",
    "useCustomTag": false,
    "flags": {
      "boolean": [],
      "dictionary": []
    },
    "equipped": true,
    "masterwork": false,
    "nonlethal": false,
    "weaponType": "exotic",
    "weaponSubtype": "2h",
    "properties": {
      "blc": false,
      "brc": false,
      "dbl": false,
      "dis": false,
      "fin": false,
      "frg": false,
      "grp": false,
      "imp": false,
      "mnk": false,
      "nnl": false,
      "prf": false,
      "rch": true,
      "snd": false,
      "thr": false,
      "trp": true,
      "dea": false,
      "dst": false
    },
    "enh": null,
    "weaponData": {
      "damageRoll": "1d8",
      "damageType": "B",
      "critRange": 20,
      "critMult": 2,
      "range": 0,
      "attackFormula": "",
      "damageFormula": "",
      "size": "med",
      "maxRangeIncrements": 1
    },
    "broken": false,
    "bonus": {
      "value": 0,
      "_deprecated": true
    },
    "damageType": {
      "value": "",
      "_deprecated": true
    },
    "damage2": {
      "value": "",
      "_deprecated": true
    },
    "damage2Type": {
      "value": "",
      "_deprecated": true
    },
    "uses": {
      "value": 0,
      "max": 0
    }
  },
  "flags": {},
  "img": "icons/weapons/thrown/bolas-steel.webp",
  "effects": [],
  "_id": "otf7OZQZhkAWoUR4"
}