{
  "name": "Monk's Spade",
  "permission": {
    "default": 0
  },
  "type": "weapon",
  "data": {
    "description": {
      "value": "<p><strong>Source</strong> <em>Ultimate Equipment pg. 19</em>, <em>Ultimate Combat pg. 133</em></p><h3 class=\"framing\"><img src=\"https://www.aonprd.com/images/PathfinderSocietySymbol.gif\" title=\"PFS Legal\" style=\"margin:3px 3px 0px 3px;\">Statistics</h3><p><strong>Cost</strong> 20 gp <strong>Weight</strong> 12 lbs.</p><p><strong>Damage</strong> 1d4/1d4 (small), 1d6/1d6 (medium); <strong>Critical</strong> x2; <strong>Range</strong> -; <strong>Type</strong> B or P or S; <strong>Special</strong> double, monk</p><p><strong>Category</strong> Two-Handed; <strong>Proficiency</strong> Martial</p><p><strong>Weapon Groups</strong> Double; Monk; Polearms</p><h3 class=\"framing\">Description</h3><p>This polearm is a double weapon. One side is fitted with a broad, shovel-like sharpened blade, while the opposite side is fitted with a crescent blade that juts out like a pair of bull's horns. The monk's spade does many types of damage. The type of damage it deals depends on how it is wielded, with the spade side able to bludgeon and slash and the crescent side able to slash and pierce.</p>",
      "chat": "",
      "unidentified": ""
    },
    "tags": [],
    "quantity": 1,
    "weight": 12,
    "price": 20,
    "identified": true,
    "hp": {
      "max": 10,
      "value": 10
    },
    "hardness": 10,
    "carried": true,
    "unidentified": {
      "price": 0,
      "name": ""
    },
    "identifiedName": "Monk's Spade",
    "cl": 0,
    "aura": {
      "custom": false,
      "school": ""
    },
    "changes": [],
    "changeFlags": {
      "loseDexToAC": false,
      "noEncumbrance": false,
      "mediumArmorFullSpeed": false,
      "heavyArmorFullSpeed": false
    },
    "contextNotes": [],
    "links": {
      "children": []
    },
    "tag": "monksSpade",
    "useCustomTag": false,
    "flags": {
      "boolean": [],
      "dictionary": []
    },
    "equipped": true,
    "masterwork": false,
    "nonlethal": false,
    "weaponType": "martial",
    "weaponSubtype": "2h",
    "properties": {
      "blc": false,
      "brc": false,
      "dbl": true,
      "dis": false,
      "fin": false,
      "frg": false,
      "grp": false,
      "imp": false,
      "mnk": true,
      "nnl": false,
      "prf": false,
      "rch": false,
      "snd": false,
      "thr": false,
      "trp": false,
      "dea": false,
      "dst": false
    },
    "enh": null,
    "weaponData": {
      "damageRoll": "1d6",
      "damageType": "B or P or S",
      "critRange": 20,
      "critMult": 2,
      "range": 0,
      "attackFormula": "",
      "damageFormula": "",
      "size": "med",
      "maxRangeIncrements": 1
    },
    "broken": false,
    "bonus": {
      "value": 0,
      "_deprecated": true
    },
    "damageType": {
      "value": "",
      "_deprecated": true
    },
    "damage2": {
      "value": "",
      "_deprecated": true
    },
    "damage2Type": {
      "value": "",
      "_deprecated": true
    },
    "uses": {
      "value": 0,
      "max": 0
    }
  },
  "flags": {},
  "img": "systems/pf1/icons/items/weapons/gnome-pincher.png",
  "effects": [],
  "_id": "v2G8vwbfvZDmseCQ"
}