{
  "_id": "oAb9EXEzaLRGfYxL",
  "name": "Sickle",
  "permission": {
    "default": 0
  },
  "type": "weapon",
  "data": {
    "description": {
      "value": "<p><strong>Source</strong> <em>Ultimate Equipment pg. 17</em>, <em>PRPG Core Rulebook pg. 142</em></p><h3 class=\"framing\"><img src=\"https://www.aonprd.com/images/PathfinderSocietySymbol.gif\" title=\"PFS Legal\" style=\"margin:3px 3px 0px 3px;\">Statistics</h3><p><strong>Cost</strong> 6 gp <strong>Weight</strong> 2 lbs.</p><p><strong>Damage</strong> 1d4 (small), 1d6 (medium); <strong>Critical</strong> x2; <strong>Range</strong> -; <strong>Type</strong> S; <strong>Special</strong> trip</p><p><strong>Category</strong> Light; <strong>Proficiency</strong> Simple</p><p><strong>Weapon Groups</strong> Blades, Light</p><h3 class=\"framing\">Description</h3><p>Originating as a farming tool used for reaping grain, this one-handed weapon has a blade with a strong curve that can easily catch an opponent's limb or armor. Its blade can be either smooth or serrated, and some fighting sickles are sharpened on both sides near the point, making it easier to hook into an opponent's flesh.</p>",
      "chat": "",
      "unidentified": ""
    },
    "tags": [],
    "quantity": 1,
    "weight": 2,
    "price": 6,
    "identified": true,
    "hp": {
      "max": 2,
      "value": 2
    },
    "hardness": 10,
    "carried": true,
    "unidentified": {
      "price": 0,
      "name": ""
    },
    "identifiedName": "Sickle",
    "cl": 0,
    "aura": {
      "custom": false,
      "school": ""
    },
    "changes": [],
    "changeFlags": {
      "loseDexToAC": false,
      "noEncumbrance": false,
      "mediumArmorFullSpeed": false,
      "heavyArmorFullSpeed": false,
      "noStr": false,
      "noDex": false,
      "oneInt": false,
      "oneWis": false,
      "oneCha": false
    },
    "contextNotes": [],
    "links": {
      "children": []
    },
    "tag": "sickle",
    "useCustomTag": false,
    "flags": {
      "boolean": [],
      "dictionary": []
    },
    "equipped": true,
    "masterwork": false,
    "nonlethal": false,
    "weaponType": "simple",
    "weaponSubtype": "light",
    "properties": {
      "blc": false,
      "brc": false,
      "dbl": false,
      "dis": false,
      "fin": false,
      "frg": false,
      "imp": false,
      "mnk": false,
      "nnl": false,
      "prf": false,
      "rch": false,
      "thr": false,
      "trp": true,
      "grp": false,
      "snd": false,
      "dea": false,
      "dst": false
    },
    "enh": null,
    "weaponData": {
      "damageRoll": "1d6",
      "damageType": "S",
      "critRange": "",
      "critMult": "2",
      "range": 0,
      "attackFormula": "",
      "damageFormula": "",
      "size": "med",
      "maxRangeIncrements": 1
    },
    "broken": false,
    "bonus": {
      "value": 0,
      "_deprecated": true
    },
    "damageType": {
      "value": "",
      "_deprecated": true
    },
    "damage2": {
      "value": "",
      "_deprecated": true
    },
    "damage2Type": {
      "value": "",
      "_deprecated": true
    },
    "damage": {
      "parts": []
    },
    "uses": {
      "value": 0,
      "max": 0
    }
  },
  "flags": {},
  "img": "systems/pf1/icons/items/weapons/sickle.png",
  "effects": []
}