{
  "_id": "o4vWDCKqxbn9Gelq",
  "name": "Snag Net",
  "permission": {
    "default": 0
  },
  "type": "weapon",
  "data": {
    "description": {
      "value": "<p><strong>Source</strong> <em>Ranged Tactics Toolbox pg. 33</em>, <em>Advanced Race Guide pg. 201</em>, <em>Ultimate Equipment pg. 21</em></p><h3 class=\"framing\"><img src=\"https://www.aonprd.com/images/PathfinderSocietySymbol.gif\" title=\"PFS Legal\" style=\"margin:3px 3px 0px 3px;\">Statistics</h3><p><strong>Cost</strong> 30 gp <strong>Weight</strong> 10 lbs.</p><p><strong>Damage</strong> - (small), - (medium); <strong>Critical</strong> -; <strong>Range</strong> 10 ft.; <strong>Type</strong> P; <strong>Special</strong> trip, see text</p><p><strong>Category</strong> Ranged; <strong>Proficiency</strong> Exotic</p><p><strong>Weapon Groups</strong> Thrown</p><h3 class=\"framing\">Description</h3><p>This short, wide net is covered in barbed loops and slipknots. It works like a typical net, except it has the trip weapon special feature. If you entangle an opponent and hold the trailing rope, on your turn in place of a melee attack you may make a combat maneuver check to trip against that opponent; if you succeed, you may trip your opponent or deal 1 point of piercing damage to it. The concentration DC to cast while entangled in a snag net is 17 + the spell's level. The Escape Artist DC to escape a snag net is 22.</p>",
      "chat": "",
      "unidentified": ""
    },
    "tags": [],
    "quantity": 1,
    "weight": 10,
    "price": 30,
    "identified": true,
    "hp": {
      "max": 5,
      "value": 5
    },
    "hardness": 5,
    "carried": true,
    "unidentified": {
      "price": 0,
      "name": ""
    },
    "identifiedName": "Snag Net",
    "cl": 0,
    "aura": {
      "custom": false,
      "school": ""
    },
    "changes": [],
    "changeFlags": {
      "loseDexToAC": false,
      "noEncumbrance": false,
      "mediumArmorFullSpeed": false,
      "heavyArmorFullSpeed": false,
      "noStr": false,
      "noDex": false,
      "oneInt": false,
      "oneWis": false,
      "oneCha": false
    },
    "contextNotes": [],
    "links": {
      "children": []
    },
    "tag": "snagNet",
    "useCustomTag": false,
    "flags": {
      "boolean": [],
      "dictionary": []
    },
    "equipped": true,
    "masterwork": false,
    "nonlethal": false,
    "weaponType": "exotic",
    "weaponSubtype": "ranged",
    "properties": {
      "blc": false,
      "brc": false,
      "dbl": false,
      "dis": false,
      "fin": false,
      "frg": false,
      "imp": false,
      "mnk": false,
      "nnl": false,
      "prf": false,
      "rch": false,
      "thr": false,
      "trp": true,
      "grp": false,
      "snd": false,
      "dea": false,
      "dst": false
    },
    "enh": null,
    "weaponData": {
      "damageRoll": "NULL",
      "damageType": "P",
      "critRange": 20,
      "critMult": 0,
      "range": 10,
      "attackFormula": "",
      "damageFormula": "",
      "size": "med",
      "maxRangeIncrements": 1
    },
    "broken": false,
    "bonus": {
      "value": 0,
      "_deprecated": true
    },
    "damageType": {
      "value": "",
      "_deprecated": true
    },
    "damage2": {
      "value": "",
      "_deprecated": true
    },
    "damage2Type": {
      "value": "",
      "_deprecated": true
    },
    "damage": {
      "parts": []
    },
    "uses": {
      "value": 0,
      "max": 0
    }
  },
  "flags": {},
  "img": "systems/pf1/icons/items/weapons/net.png",
  "effects": []
}