{
  "_id": "gxTN2rn0eYV4QsYJ",
  "name": "Tangleshot Arrow",
  "permission": {
    "default": 0
  },
  "type": "loot",
  "data": {
    "description": {
      "value": "<p><strong>Source</strong> <em>Alchemy Manual pg. 21</em>, <em>Elves of Golarion pg. 23</em><br /><strong>Price</strong> 20 gp; <strong>Weight</strong> -<br /><strong>Category</strong> Alchemical Weapons</p>\n<h2 class=\"framing\">Description</h2>\n<p>This arrow is tipped with a tiny vial of tanglefoot goo. Firing a tangleshot arrow is a ranged touch attack; the arrow deals no damage when it hits, but the target is splashed with the alchemical adhesive.</p>\n<p>This effect is similar to that of a @Compendium[pf1.items.utncinnlwzscpzbd]{Tanglefoot Bag}, but with the following adjustments: <strong>Reflex DC 1</strong>0, <strong>Strength DC 12</strong> to break, 10 points of slashing damage to cut through, concentration DC 10 to cast spells.</p>\n<p>A tangleshot arrow imposes a <strong>-1 penalty on attack rolls</strong> because of its weight.</p>\n<h2 class=\"framing\">Alchemical Recipe</h2>\n<p><strong>Recipe</strong> (18 myrrh + 26 urea)/congelation; <strong>Craft</strong> 25<br /><strong>Time</strong> 10 minutes; <strong>Tools</strong> alchemist's lab; <strong>Type</strong> alchemical weapon</p>",
      "chat": "",
      "unidentified": ""
    },
    "tags": [],
    "quantity": 1,
    "weight": 0,
    "price": 20,
    "identified": true,
    "hp": {
      "max": 1,
      "value": 1
    },
    "hardness": 5,
    "carried": true,
    "unidentified": {
      "price": 20,
      "name": ""
    },
    "identifiedName": "Tangleshot Arrow",
    "cl": 0,
    "aura": {
      "custom": false,
      "school": ""
    },
    "changes": [],
    "changeFlags": {
      "loseDexToAC": false,
      "noEncumbrance": false,
      "mediumArmorFullSpeed": false,
      "heavyArmorFullSpeed": false,
      "noStr": false,
      "noDex": false,
      "oneInt": false,
      "oneWis": false,
      "oneCha": false
    },
    "contextNotes": [],
    "links": {
      "children": []
    },
    "tag": "tangleshotArrow",
    "useCustomTag": false,
    "flags": {
      "boolean": [],
      "dictionary": []
    },
    "subType": "ammo",
    "equipped": false,
    "damage": {
      "parts": [],
      "critParts": []
    },
    "properties": {},
    "weaponData": {},
    "bonus": {},
    "damageType": {},
    "damage2": {},
    "damage2Type": {},
    "uses": {
      "value": 0,
      "max": 0
    }
  },
  "flags": {},
  "img": "systems/pf1/icons/items/weapons/arrow-special.PNG",
  "effects": []
}